{
	"id": "988a54f4-1381-30e0-1dd3-5973f60e6d26",
	"name": "FastSpringPizzaAppRestServices",
	"description": "Please find the Postman collection of REST APIs for the Pizza Ordering APP.\n\n",
	"order": [
		"0b74e704-6692-6ef5-be9d-d10fddbc5f29",
		"2fb54394-d35f-1689-304a-9941afb32d5d",
		"ea14447b-19db-4ef1-01dd-954101328413",
		"e6e907b7-bfa1-7444-3ee6-0087dbb186c6",
		"8c95d38d-6866-6718-a4f2-3dd1b1cbd800",
		"6cb8adff-ada0-0942-0f8d-138e3541c301",
		"c531add1-636f-f3d2-7e96-c94424ce2248",
		"0b578f54-d067-7355-77e9-adf47734ebbd"
	],
	"folders": [
		{
			"name": "Manager queries",
			"description": "",
			"collectionId": "988a54f4-1381-30e0-1dd3-5973f60e6d26",
			"order": [
				"943da83c-2f04-db01-64fd-c93cb8c65625",
				"8daed740-a462-e1f0-4d57-ceac4f57a305",
				"bf957985-f8fa-61be-f63e-d3dd62a7c04d"
			],
			"owner": 0,
			"folders_order": [],
			"id": "c094c4e6-d8fa-d9ca-d0fa-e6fe26488c5d"
		},
		{
			"name": "User queries",
			"description": "",
			"collectionId": "988a54f4-1381-30e0-1dd3-5973f60e6d26",
			"order": [
				"6efbfd86-9ce7-ed71-f8b0-9748c9b534f2",
				"4cce7840-075c-5378-e736-11f7c5e62f00",
				"abec4954-4c8e-65c4-1676-4dafc8f1050f",
				"26dfeefa-a44a-9cfa-ce39-0deb85d7e7b4"
			],
			"owner": 0,
			"folders_order": [],
			"id": "64364184-f25f-fbab-03b4-826a9921716d"
		}
	],
	"folders_order": [
		"c094c4e6-d8fa-d9ca-d0fa-e6fe26488c5d",
		"64364184-f25f-fbab-03b4-826a9921716d"
	],
	"timestamp": 1531391388815,
	"owner": 0,
	"public": false,
	"requests": [
		{
			"id": "0b578f54-d067-7355-77e9-adf47734ebbd",
			"headers": "",
			"headerData": [],
			"url": "http://localhost:8080/pizzas/3",
			"queryParams": [],
			"pathVariables": {},
			"pathVariableData": [],
			"preRequestScript": null,
			"method": "DELETE",
			"collectionId": "988a54f4-1381-30e0-1dd3-5973f60e6d26",
			"data": null,
			"dataMode": "params",
			"name": "http://localhost:8080/pizzas/3",
			"description": "DELETE Pizza with a specific id",
			"descriptionFormat": "html",
			"time": 1531425318016,
			"version": 2,
			"responses": [],
			"tests": null,
			"currentHelper": "normal",
			"helperAttributes": {}
		},
		{
			"id": "0b74e704-6692-6ef5-be9d-d10fddbc5f29",
			"headers": "",
			"headerData": [],
			"url": "http://localhost:8080/toppings",
			"queryParams": [],
			"pathVariables": {},
			"pathVariableData": [],
			"preRequestScript": null,
			"method": "GET",
			"collectionId": "988a54f4-1381-30e0-1dd3-5973f60e6d26",
			"data": null,
			"dataMode": "params",
			"name": "http://localhost:8080/toppings",
			"description": "GET Toppings query",
			"descriptionFormat": "html",
			"time": 1531424502630,
			"version": 2,
			"responses": [],
			"tests": null,
			"currentHelper": "normal",
			"helperAttributes": {}
		},
		{
			"id": "26dfeefa-a44a-9cfa-ce39-0deb85d7e7b4",
			"headers": "Content-Type: application/json\nuid: 1\n",
			"headerData": [
				{
					"key": "Content-Type",
					"value": "application/json",
					"description": "",
					"enabled": true
				},
				{
					"key": "uid",
					"value": "1",
					"description": "",
					"enabled": true
				}
			],
			"url": "http://localhost:8080/users/orders",
			"queryParams": [],
			"preRequestScript": null,
			"pathVariables": {},
			"pathVariableData": [],
			"method": "POST",
			"data": [],
			"dataMode": "raw",
			"tests": null,
			"currentHelper": "normal",
			"helperAttributes": {},
			"time": 1531424335298,
			"name": "http://localhost:8080/users/orders",
			"description": "This API lets you create orders after user has signin.\nthis POST request requires us to provide uid in the header and order info in the body\n{\n        \n        \"pId\": 1,\n        \"tIds\": [\n            1,\n            2\n        ]\n    }\n    \n    \n    and returns an EntityResponse in the Header",
			"collectionId": "988a54f4-1381-30e0-1dd3-5973f60e6d26",
			"responses": [],
			"rawModeData": "{\n        \n       \n        \"pId\": 1,\n        \"tIds\": [\n            1,\n            2\n        ]\n    }"
		},
		{
			"id": "2fb54394-d35f-1689-304a-9941afb32d5d",
			"headers": "",
			"headerData": [],
			"url": "http://localhost:8080/toppings/1",
			"queryParams": [],
			"pathVariables": {},
			"pathVariableData": [],
			"preRequestScript": null,
			"method": "GET",
			"collectionId": "988a54f4-1381-30e0-1dd3-5973f60e6d26",
			"data": null,
			"dataMode": "params",
			"name": "http://localhost:8080/toppings/1",
			"description": "Get a Specific Topping",
			"descriptionFormat": "html",
			"time": 1531424554709,
			"version": 2,
			"responses": [],
			"tests": null,
			"currentHelper": "normal",
			"helperAttributes": {}
		},
		{
			"id": "4cce7840-075c-5378-e736-11f7c5e62f00",
			"headers": "Content-Type: application/json\n",
			"headerData": [
				{
					"key": "Content-Type",
					"value": "application/json",
					"description": "",
					"enabled": true
				}
			],
			"url": "http://localhost:8080/users/signin",
			"queryParams": [],
			"pathVariables": {},
			"pathVariableData": [],
			"preRequestScript": null,
			"method": "POST",
			"collectionId": "988a54f4-1381-30e0-1dd3-5973f60e6d26",
			"data": [],
			"dataMode": "raw",
			"name": "http://localhost:8080/users/signin",
			"description": "Signing in users requires using this API. Same as MAnager Signin, This API takes email and password in the request body.",
			"descriptionFormat": "html",
			"time": 1531423850836,
			"version": 2,
			"responses": [],
			"tests": null,
			"currentHelper": "normal",
			"helperAttributes": {},
			"folder": "64364184-f25f-fbab-03b4-826a9921716d",
			"rawModeData": "{\n\t\"email\" : \"shruiap@gmail.com\",\n\t\"password\" : \"Pass@123\"\n}"
		},
		{
			"id": "6cb8adff-ada0-0942-0f8d-138e3541c301",
			"headers": "",
			"headerData": [],
			"url": "http://localhost:8080/pizzas/2",
			"queryParams": [],
			"pathVariables": {},
			"pathVariableData": [],
			"preRequestScript": null,
			"method": "GET",
			"collectionId": "988a54f4-1381-30e0-1dd3-5973f60e6d26",
			"data": null,
			"dataMode": "params",
			"name": "http://localhost:8080/pizzas/2",
			"description": "GET request to get a specific Pizza.",
			"descriptionFormat": "html",
			"time": 1531424961557,
			"version": 2,
			"responses": [],
			"tests": null,
			"currentHelper": "normal",
			"helperAttributes": {}
		},
		{
			"id": "6efbfd86-9ce7-ed71-f8b0-9748c9b534f2",
			"headers": "Content-Type: application/json\nname: Shripal Shah\n",
			"headerData": [
				{
					"key": "Content-Type",
					"value": "application/json",
					"description": "",
					"enabled": true
				},
				{
					"key": "name",
					"value": "Shripal Shah",
					"description": "",
					"enabled": true
				}
			],
			"url": "http://localhost:8080/users/signup",
			"queryParams": [],
			"preRequestScript": null,
			"pathVariables": {},
			"pathVariableData": [],
			"method": "POST",
			"data": [],
			"dataMode": "raw",
			"tests": null,
			"currentHelper": "normal",
			"helperAttributes": {},
			"time": 1531423343438,
			"name": "http://localhost:8080/users/signup",
			"description": "This API lets new users Sign Up\nWe need to pass user full name in the header and \nemail and password in the body.\n",
			"collectionId": "988a54f4-1381-30e0-1dd3-5973f60e6d26",
			"responses": [],
			"rawModeData": "{\n\t\"email\" : \"shruiap@gmail.com\",\n\t\"password\" : \"Pass@123\"\n}"
		},
		{
			"id": "8c95d38d-6866-6718-a4f2-3dd1b1cbd800",
			"headers": "",
			"headerData": [],
			"url": "http://localhost:8080/pizzas",
			"queryParams": [],
			"pathVariables": {},
			"pathVariableData": [],
			"preRequestScript": null,
			"method": "GET",
			"collectionId": "988a54f4-1381-30e0-1dd3-5973f60e6d26",
			"data": null,
			"dataMode": "params",
			"name": "http://localhost:8080/pizzas",
			"description": "GET list of available pizzas\n\n",
			"descriptionFormat": "html",
			"time": 1531424910996,
			"version": 2,
			"responses": [],
			"tests": null,
			"currentHelper": "normal",
			"helperAttributes": {}
		},
		{
			"id": "8daed740-a462-e1f0-4d57-ceac4f57a305",
			"headers": "Content-Type: application/json\n",
			"headerData": [
				{
					"key": "Content-Type",
					"value": "application/json",
					"description": "",
					"enabled": true
				}
			],
			"url": "http://localhost:8080/managers/signin",
			"queryParams": [],
			"pathVariables": {},
			"pathVariableData": [],
			"preRequestScript": null,
			"method": "POST",
			"collectionId": "988a54f4-1381-30e0-1dd3-5973f60e6d26",
			"data": [],
			"dataMode": "raw",
			"name": "http://localhost:8080/managers/signin",
			"description": "This request is used to let managers sign in to the console using email and password.\n\nThis is a POST request, which takes an object with email and password in it as the request BODY \n\nand returns the manager id in response with status ok",
			"descriptionFormat": "html",
			"time": 1531392047021,
			"version": 2,
			"responses": [],
			"tests": null,
			"currentHelper": "normal",
			"helperAttributes": {},
			"folder": "c094c4e6-d8fa-d9ca-d0fa-e6fe26488c5d",
			"rawModeData": "{\n\t\"email\" : \"shripaall4@gmail.com\",\n\t\"password\" : \"Pass@123\"\n\t\n}"
		},
		{
			"id": "943da83c-2f04-db01-64fd-c93cb8c65625",
			"headers": "Content-Type: application/json\nname: Shripal Shah\n",
			"headerData": [
				{
					"key": "Content-Type",
					"value": "application/json",
					"description": "",
					"enabled": true
				},
				{
					"key": "name",
					"value": "Shripal Shah",
					"description": "",
					"enabled": true
				}
			],
			"url": "http://localhost:8080/managers/signup",
			"folder": "c094c4e6-d8fa-d9ca-d0fa-e6fe26488c5d",
			"queryParams": [],
			"preRequestScript": null,
			"pathVariables": {},
			"pathVariableData": [],
			"method": "POST",
			"data": [],
			"dataMode": "raw",
			"tests": null,
			"currentHelper": "normal",
			"helperAttributes": {},
			"time": 1531391838234,
			"name": "http://localhost:8080/managers/signup",
			"description": "The request Signs up a manager. \nIt requires us to pass manager name in the header. \nYou need to pass an object in the body having email and password\n",
			"collectionId": "988a54f4-1381-30e0-1dd3-5973f60e6d26",
			"responses": [],
			"rawModeData": "{\n\t\"email\" : \"shripaall4@gmail.com\",\n\t\"password\" : \"Pass@123\"\n\t\n}"
		},
		{
			"id": "abec4954-4c8e-65c4-1676-4dafc8f1050f",
			"headers": "uid: 1\n",
			"headerData": [
				{
					"key": "uid",
					"value": "1",
					"description": "",
					"enabled": true
				}
			],
			"url": "http://localhost:8080/users/orders",
			"queryParams": [],
			"pathVariables": {},
			"pathVariableData": [],
			"preRequestScript": null,
			"method": "GET",
			"collectionId": "988a54f4-1381-30e0-1dd3-5973f60e6d26",
			"data": null,
			"dataMode": "params",
			"name": "http://localhost:8080/users/orders",
			"description": "GET request to Fetch Orders pertaining to a specific user.\nWE need to provide user id in the request header.",
			"descriptionFormat": "html",
			"time": 1531424017423,
			"version": 2,
			"responses": [],
			"tests": null,
			"currentHelper": "normal",
			"helperAttributes": {},
			"folder": "64364184-f25f-fbab-03b4-826a9921716d"
		},
		{
			"id": "bf957985-f8fa-61be-f63e-d3dd62a7c04d",
			"headers": "mid: 1\n",
			"headerData": [
				{
					"key": "mid",
					"value": "1",
					"description": "",
					"enabled": true
				}
			],
			"url": "http://localhost:8080/orders",
			"queryParams": [],
			"pathVariables": {},
			"pathVariableData": [],
			"preRequestScript": null,
			"method": "GET",
			"collectionId": "988a54f4-1381-30e0-1dd3-5973f60e6d26",
			"data": null,
			"dataMode": "params",
			"name": "http://localhost:8080/orders",
			"description": "This API requires us to provide Manager Id in the header. Orders can then be displayed",
			"descriptionFormat": "html",
			"time": 1531421752679,
			"version": 2,
			"responses": [],
			"tests": null,
			"currentHelper": "normal",
			"helperAttributes": {},
			"folder": "c094c4e6-d8fa-d9ca-d0fa-e6fe26488c5d"
		},
		{
			"id": "c531add1-636f-f3d2-7e96-c94424ce2248",
			"headers": "Content-Type: application/json\n",
			"headerData": [
				{
					"key": "Content-Type",
					"value": "application/json",
					"description": "",
					"enabled": true
				}
			],
			"url": "http://localhost:8080/pizzas",
			"queryParams": [],
			"pathVariables": {},
			"pathVariableData": [],
			"preRequestScript": null,
			"method": "POST",
			"collectionId": "988a54f4-1381-30e0-1dd3-5973f60e6d26",
			"data": [],
			"dataMode": "raw",
			"name": "http://localhost:8080/pizzas",
			"description": "POST request to add new Pizza in the inventory.\n\nPass the object in the bode \n{\n\t\"name\" : \"name Pzz\",\n\t\"basePrice\" : 12\n\t\n}",
			"descriptionFormat": "html",
			"time": 1531425161205,
			"version": 2,
			"responses": [],
			"tests": null,
			"currentHelper": "normal",
			"helperAttributes": {},
			"rawModeData": "{\n\t\"name\" : \"sev puri pizza\",\n\t\"basePrice\" : 12\n\t\n}"
		},
		{
			"id": "e6e907b7-bfa1-7444-3ee6-0087dbb186c6",
			"headers": "Content-Type: application/json\n",
			"headerData": [
				{
					"key": "Content-Type",
					"value": "application/json",
					"description": "",
					"enabled": true
				}
			],
			"url": "http://localhost:8080/toppings",
			"queryParams": [],
			"pathVariables": {},
			"pathVariableData": [],
			"preRequestScript": null,
			"method": "POST",
			"collectionId": "988a54f4-1381-30e0-1dd3-5973f60e6d26",
			"data": [],
			"dataMode": "raw",
			"name": "http://localhost:8080/toppings",
			"description": "POST Toppings (Create new toppings by passing name and cost in the REQUEST BODY )",
			"descriptionFormat": "html",
			"time": 1531424713290,
			"version": 2,
			"responses": [],
			"tests": null,
			"currentHelper": "normal",
			"helperAttributes": {},
			"rawModeData": "{\n      \n        \"name\": \"Olives\",\n        \"cost\": 1\n    }"
		},
		{
			"id": "ea14447b-19db-4ef1-01dd-954101328413",
			"headers": "",
			"headerData": [],
			"url": "http://localhost:8080/toppings/1",
			"queryParams": [],
			"pathVariables": {},
			"pathVariableData": [],
			"preRequestScript": null,
			"method": "DELETE",
			"collectionId": "988a54f4-1381-30e0-1dd3-5973f60e6d26",
			"data": null,
			"dataMode": "params",
			"name": "http://localhost:8080/toppings/1",
			"description": "DELETE Toppings/{id}",
			"descriptionFormat": "html",
			"time": 1531424595271,
			"version": 2,
			"responses": [],
			"tests": null,
			"currentHelper": "normal",
			"helperAttributes": {}
		}
	]
}